…
# Set factor levels for the clusters of interest
top_markers$cluster <- factor(top_markers$cluster, levels = clusters_of_interest)

# Arrange by cluster for plotting
top_markers <- top_markers %>%
    arrange(cluster)

# Display the top markers for verification
top_markers
```

    ## # A tibble: 25 × 7
    ##    p_val avg_log2FC pct.1 pct.2 p_val_adj cluster gene  
    ##    <dbl>      <dbl> <dbl> <dbl>     <dbl> <fct>   <chr> 
    ##  1     0       4.64 0.924 0.094         0 iPPC_0  DLGAP5
    ##  2     0       4.95 0.963 0.144         0 iPPC_0  CCNB1 
    ##  3     0       3.91 0.96  0.15          0 iPPC_0  PBK   
    ##  4     0       3.95 0.962 0.155         0 iPPC_0  BIRC5 
    ##  5     0       4.07 0.972 0.172         0 iPPC_0  MKI67 
    ##  6     0       3.44 0.944 0.121         0 iPPC_1  RRM2  
    ##  7     0       3.44 0.943 0.124         0 iPPC_1  SPC25 
    ##  8     0       4.01 0.909 0.105         0 iPPC_1  H1-5  
    ##  9     0       3.90 0.897 0.095         0 iPPC_1  H3C2  
    ## 10     0       3.30 0.981 0.185         0 iPPC_1  DIAPH3
    ## # ℹ 15 more rows
…
